{
 "signing": {
     "default": {
         "expiry": "43800h"
     },
     "profiles": {
         "server": {
             "expiry": "43800h",
             "usages": [
                 "signing",
                 "key encipherment",
                 "server auth",
                 "client auth"
             ]
         },
         "client": {
             "expiry": "43800h",
             "usages": [
                 "signing",
                 "key encipherment",
                 "client auth"
             ]
         },
         "peer": {
             "expiry": "43800h",
             "usages": [
                 "signing",
                 "key encipherment",
                 "server auth",
                 "client auth"
             ]
         }
     }
 }
}